%YAML 1.1
%TAG !u! tag:unity3d.com,2011:
--- !u!1045 &1
EditorBuildSettings:
  m_ObjectHideFlags: 0
  serializedVersion: 2
  m_Scenes:
  - enabled: 1
    path: Assets/Scenes/Menu.unity
    guid: 9fc0d4010bbf28b4594072e72b8655ab
  - enabled: 1
    path: Assets/Scenes/Game.unity
    guid: 417002f64ada74846a17c77cc517c335
  - enabled: 1
    path: Assets/Scenes/game2.unity
    guid: 40a7af07b2fe01d40ac6a43b05b113d7
  - enabled: 1
    path: Assets/Scenes/game3.unity
    guid: b1e1c5fe840d1d647ace0738b1cd288e
  m_configObjects: {}
