%YAML 1.1
%TAG !u! tag:unity3d.com,2011:
--- !u!1001 &5410656746745328011
PrefabInstance:
  m_ObjectHideFlags: 0
  serializedVersion: 2
  m_Modification:
    m_TransformParent: {fileID: 0}
    m_Modifications:
    - target: {fileID: 100050, guid: ba24e610e0a338545b447ff44a3cf1cc, type: 3}
      propertyPath: m_Name
      value: ToonRTS_demo_Knight
      objectReference: {fileID: 0}
    - target: {fileID: 400050, guid: ba24e610e0a338545b447ff44a3cf1cc, type: 3}
      propertyPath: m_RootOrder
      value: 0
      objectReference: {fileID: 0}
    - target: {fileID: 400050, guid: ba24e610e0a338545b447ff44a3cf1cc, type: 3}
      propertyPath: m_LocalScale.x
      value: 4
      objectReference: {fileID: 0}
    - target: {fileID: 400050, guid: ba24e610e0a338545b447ff44a3cf1cc, type: 3}
      propertyPath: m_LocalScale.y
      value: 4
      objectReference: {fileID: 0}
    - target: {fileID: 400050, guid: ba24e610e0a338545b447ff44a3cf1cc, type: 3}
      propertyPath: m_LocalScale.z
      value: 4
      objectReference: {fileID: 0}
    - target: {fileID: 400050, guid: ba24e610e0a338545b447ff44a3cf1cc, type: 3}
      propertyPath: m_LocalPosition.x
      value: 38.161366
      objectReference: {fileID: 0}
    - target: {fileID: 400050, guid: ba24e610e0a338545b447ff44a3cf1cc, type: 3}
      propertyPath: m_LocalPosition.y
      value: 0
      objectReference: {fileID: 0}
    - target: {fileID: 400050, guid: ba24e610e0a338545b447ff44a3cf1cc, type: 3}
      propertyPath: m_LocalPosition.z
      value: 17.351833
      objectReference: {fileID: 0}
    - target: {fileID: 400050, guid: ba24e610e0a338545b447ff44a3cf1cc, type: 3}
      propertyPath: m_LocalRotation.w
      value: 1
      objectReference: {fileID: 0}
    - target: {fileID: 400050, guid: ba24e610e0a338545b447ff44a3cf1cc, type: 3}
      propertyPath: m_LocalRotation.x
      value: 0
      objectReference: {fileID: 0}
    - target: {fileID: 400050, guid: ba24e610e0a338545b447ff44a3cf1cc, type: 3}
      propertyPath: m_LocalRotation.y
      value: 0
      objectReference: {fileID: 0}
    - target: {fileID: 400050, guid: ba24e610e0a338545b447ff44a3cf1cc, type: 3}
      propertyPath: m_LocalRotation.z
      value: 0
      objectReference: {fileID: 0}
    - target: {fileID: 400050, guid: ba24e610e0a338545b447ff44a3cf1cc, type: 3}
      propertyPath: m_LocalEulerAnglesHint.x
      value: 0
      objectReference: {fileID: 0}
    - target: {fileID: 400050, guid: ba24e610e0a338545b447ff44a3cf1cc, type: 3}
      propertyPath: m_LocalEulerAnglesHint.y
      value: 0
      objectReference: {fileID: 0}
    - target: {fileID: 400050, guid: ba24e610e0a338545b447ff44a3cf1cc, type: 3}
      propertyPath: m_LocalEulerAnglesHint.z
      value: 0
      objectReference: {fileID: 0}
    m_RemovedComponents: []
  m_SourcePrefab: {fileID: 100100000, guid: ba24e610e0a338545b447ff44a3cf1cc, type: 3}
